Andrew Bartnik - Examining Word Frequencies in NYT Biodiversity articles
…
Word frequency

data(stop_words)
stop_words

# A tibble: 1,149 × 2
   word        lexicon
   <chr>       <chr>  
 1 a           SMART  
 2 a's         SMART  
 3 able        SMART  
 4 about       SMART  
 5 above       SMART  
 6 according   SMART  
 7 accordingly SMART  
 8 across      SMART  
 9 actually    SMART  
10 after       SMART  
# … with 1,139 more rows
…
[1] "why"     "tiny"    "ponds"   "and"     "singing" "frogs"  

head(token_headlines$word)

[1] "why"     "tiny"    "ponds"   "and"     "singing" "frogs"  

#remove the empty strings
tib3 <-subset(token_headlines, word!="")
#reassign
token_headlines <- tib3

data(stop_words)
stop_words

# A tibble: 1,149 × 2
   word        lexicon
   <chr>       <chr>  
 1 a           SMART  
 2 a's         SMART  
 3 able        SMART  
 4 about       SMART  
 5 above       SMART  
 6 according   SMART  
 7 accordingly SMART  
 8 across      SMART  
 9 actually    SMART  
10 after       SMART  
# … with 1,139 more rows
…
